Demographic and Economic Analysis of European Countries
…
## 
## DoÅ‚Ä…czanie pakietu: 'MASS'

## NastÄ™pujÄ…cy obiekt zostaÅ‚ zakryty z 'package:dplyr':
## 
##     select

Data â€œgapminderâ€ used for the project, their structure, and basic statistics

gapminder

## # A tibble: 1,704 x 6
##    country     continent  year lifeExp      pop gdpPercap
##    <fct>       <fct>     <int>   <dbl>    <int>     <dbl>
##  1 Afghanistan Asia       1952    28.8  8425333      779.
##  2 Afghanistan Asia       1957    30.3  9240934      821.
##  3 Afghanistan Asia       1962    32.0 10267083      853.
##  4 Afghanistan Asia       1967    34.0 11537966      836.
##  5 Afghanistan Asia       1972    36.1 13079460      740.
##  6 Afghanistan Asia       1977    38.4 14880372      786.
##  7 Afghanistan Asia       1982    39.9 12881816      978.
##  8 Afghanistan Asia       1987    40.8 13867957      852.
##  9 Afghanistan Asia       1992    41.7 16317921      649.
## 10 Afghanistan Asia       1997    41.8 22227415      635.
## # ... with 1,694 more rows
…
Modification data

gapminder_modified <- gapminder  
gapminder_modified$lifeExp <- round(gapminder$lifeExp, digits = 0)
gapminder_modified$gdpPercap <- round(gapminder$gdpPercap, digits = 1)
gapminder_modified

## # A tibble: 1,704 x 6
##    country     continent  year lifeExp      pop gdpPercap
##    <fct>       <fct>     <int>   <dbl>    <int>     <dbl>
##  1 Afghanistan Asia       1952      29  8425333      779.
##  2 Afghanistan Asia       1957      30  9240934      821.
##  3 Afghanistan Asia       1962      32 10267083      853.
##  4 Afghanistan Asia       1967      34 11537966      836.
##  5 Afghanistan Asia       1972      36 13079460      740 
##  6 Afghanistan Asia       1977      38 14880372      786.
##  7 Afghanistan Asia       1982      40 12881816      978 
##  8 Afghanistan Asia       1987      41 13867957      852.
##  9 Afghanistan Asia       1992      42 16317921      649.
## 10 Afghanistan Asia       1997      42 22227415      635.
## # ... with 1,694 more rows
…
